Grouping, Summarizing, and Plotting Data
…
Line Plots

continent_allyears_df <- gapminder %>%
                      group_by(year, continent) %>%
                      summarize(avgGDPPercap = mean(gdpPercap))

continent_allyears_df

## # A tibble: 60 x 3
## # Groups:   year [12]
##     year continent avgGDPPercap
##    <int> <fct>            <dbl>
##  1  1952 Africa           1253.
##  2  1952 Americas         4079.
##  3  1952 Asia             5195.
##  4  1952 Europe           5661.
##  5  1952 Oceania         10298.
##  6  1957 Africa           1385.
##  7  1957 Americas         4616.
##  8  1957 Asia             5788.
##  9  1957 Europe           6963.
## 10  1957 Oceania         11599.
## # ... with 50 more rows
…
Histograms

data_57_97_df <- gapminder %>%
                  filter(year %in% c(1957,2007))

data_57_97_df

## # A tibble: 284 x 6
##    country     continent  year lifeExp      pop gdpPercap
##    <fct>       <fct>     <int>   <dbl>    <int>     <dbl>
##  1 Afghanistan Asia       1957    30.3  9240934      821.
##  2 Afghanistan Asia       2007    43.8 31889923      975.
##  3 Albania     Europe     1957    59.3  1476505     1942.
##  4 Albania     Europe     2007    76.4  3600523     5937.
##  5 Algeria     Africa     1957    45.7 10270856     3014.
##  6 Algeria     Africa     2007    72.3 33333216     6223.
##  7 Angola      Africa     1957    32.0  4561361     3828.
##  8 Angola      Africa     2007    42.7 12420476     4797.
##  9 Argentina   Americas   1957    64.4 19610538     6857.
## 10 Argentina   Americas   2007    75.3 40301927    12779.
## # ... with 274 more rows
…
